{"info": {"author": "calvin", "author_email": "dani@aplazame.com", "bugtrack_url": null, "classifiers": ["Intended Audience :: Developers", "License :: OSI Approved :: Apache Software License", "Natural Language :: English", "Operating System :: OS Independent", "Programming Language :: Python", "Programming Language :: Python :: 2.6", "Programming Language :: Python :: 2.7", "Programming Language :: Python :: 3", "Programming Language :: Python :: 3.3", "Programming Language :: Python :: 3.4"], "description": "Aplazame Python Sdk\n===================\n\n|Build Status| |Wheel| |Drone| |Requirements Status| |Coveralls| |Code Climate|\n\n|Aplazame|\n\n`Aplazame`_, a consumer credit company, offers a payment system that can be\nused by online buyers to receive funding for their purchases.\n\nInstallation\n------------\n\nTo install aplazame-sdk, simply:\n\n.. code:: sh\n\n    $ pip install aplazame-sdk\n\nUsage\n-----\n\n.. code:: python\n\n    >>> import aplazame_sdk\n    >>> client = aplazame_sdk.Client('token', sandbox=True, version='1', ctype='json')\n    >>> r = client.orders(page=2)\n    >>> r.json()\n    {\n      \"cursor\": {\n        \"after\": 3,\n        \"before\": 1\n      },\n      \"paging\": {\n        \"count\": 314,\n        \"next\": \"https://api.aplazame.com/orders?page=3\",\n        \"previous\": \"https://api.aplazame.com/orders?page=1\"\n      },\n      \"results\": [\n      ]\n    }\n    >>> r.status_code\n    200\n\nExceptions\n----------\n\n.. code:: python\n\n    >>> import aplazame_sdk\n    >>> client = aplazame_sdk.Client('token')\n    >>> try:\n    ...     r = client.get_order('buh')\n    ... except aplazame_sdk.AplazameError as err:\n    ...     err.code\n    404\n\nHttp\n----\n\n.. code:: http\n\n    GET /orders HTTP/1.1\n    Accept: application/vnd.aplazame.sandbox.v1+json\n    Authorization: Bearer ->token<-\n    Host: api.aplazame.com\n\n    HTTP/1.1 200 OK\n    Content-Type: application/vnd.aplazame.sandbox.v1+json\n\nDocumentation\n-------------\n\nDocumentation is available at `docs.aplazame.com`_.\n\n.. _Aplazame: https://aplazame.com\n.. _docs.aplazame.com: http://docs.aplazame.com\n\n\n.. |Build Status| image:: https://img.shields.io/pypi/v/aplazame-sdk.svg\n   :target: https://pypi.python.org/pypi/aplazame-sdk\n.. |Wheel| image:: https://img.shields.io/pypi/wheel/aplazame-sdk.svg\n   :target: https://pypi.python.org/pypi/aplazame-sdk\n.. |Downloads| image:: https://img.shields.io/pypi/dm/aplazame-sdk.svg\n   :target: https://pypi.python.org/pypi/aplazame-sdk\n.. |Requirements Status| image:: https://requires.io/github/aplazame/aplazame-sdk/requirements.svg?branch=master\n   :target: https://requires.io/github/aplazame/aplazame-sdk/requirements/?branch=master\n.. |Drone| image:: http://drone.aplazame.com/api/badge/github.com/aplazame/aplazame-sdk/status.svg?branch=master\n   :target: http://drone.aplazame.com/github.com/aplazame/aplazame-sdk\n.. |Coveralls| image:: https://coveralls.io/repos/aplazame/aplazame-sdk/badge.svg?branch=HEAD&service=github\n   :target: https://coveralls.io/github/aplazame/aplazame-sdk?branch=HEAD\n.. |Code Climate| image:: https://codeclimate.com/github/aplazame/aplazame-sdk/badges/gpa.svg\n   :target: https://codeclimate.com/github/aplazame/aplazame-sdk\n.. |Aplazame| image:: https://aplazame.com/static/img/banners/banner-728-white-python.png\n   :target: https://aplazame.com\n\n\nChange Log\n==========\n\n`0.2.6`_ (2015-12-11)\n---------------------\n\n`Full Changelog v0.2.6`_\n\n* Replace detail by get\n* Fix tests\n\n`0.2.5`_ (2015-12-11)\n---------------------\n\n`Full Changelog v0.2.5`_\n\n* Operations and payments summary\n* Tests\n\n`0.2.4`_ (2015-12-05)\n---------------------\n\n`Full Changelog v0.2.4`_\n\n* Instalment payments\n* Tests\n\n`0.2.3`_ (2015-10-13)\n---------------------\n\n`Full Changelog v0.2.3`_\n\n* Payments\n* Merchant requests\n* Tests\n\n`0.2.2`_ (2015-09-15)\n---------------------\n\n`Full Changelog v0.2.2`_\n\n* Fix lists kwargs\n* Add /me and operations\n* ci pull request strategy\n* ci publish on pypi\n* ci package versioning\n\n`0.2.1`_ (2015-08-24)\n---------------------\n\n`Full Changelog v0.2.1`_\n\n* ci deploy master\n* Simulator request\n* Fix minor errors\n\n`0.2.0`_ (2015-07-20)\n---------------------\n\n* Makefile\n* ci with drone.io\n* Coverage 100%\n* Test and build requirements\n* Add badges\n* Get method params strategy\n\n.. _0.2.0: https://github.com/aplazame/aplazame-sdk/tree/v0.2.0\n.. _0.2.1: https://github.com/aplazame/aplazame-sdk/tree/v0.2.1\n.. _0.2.2: https://github.com/aplazame/aplazame-sdk/tree/v0.2.2\n.. _0.2.3: https://github.com/aplazame/aplazame-sdk/tree/v0.2.3\n.. _0.2.4: https://github.com/aplazame/aplazame-sdk/tree/v0.2.4\n.. _0.2.5: https://github.com/aplazame/aplazame-sdk/tree/v0.2.5\n.. _0.2.6: https://github.com/aplazame/aplazame-sdk/tree/v0.2.6\n.. _Full Changelog v0.2.1: https://github.com/aplazame/aplazame-sdk/compare/v0.2.0...v0.2.1\n.. _Full Changelog v0.2.2: https://github.com/aplazame/aplazame-sdk/compare/v0.2.1...v0.2.2\n.. _Full Changelog v0.2.3: https://github.com/aplazame/aplazame-sdk/compare/v0.2.2...v0.2.3\n.. _Full Changelog v0.2.4: https://github.com/aplazame/aplazame-sdk/compare/v0.2.3...v0.2.4\n.. _Full Changelog v0.2.5: https://github.com/aplazame/aplazame-sdk/compare/v0.2.4...v0.2.5\n.. _Full Changelog v0.2.6: https://github.com/aplazame/aplazame-sdk/compare/v0.2.5...v0.2.6", "description_content_type": null, "docs_url": null, "download_url": "UNKNOWN", "downloads": {"last_day": -1, "last_month": -1, "last_week": -1}, "home_page": "https://github.com/aplazame/aplazame-sdk", "keywords": "python,aplazame,api,rest,sdk", "license": "Apache 2.0", "maintainer": null, "maintainer_email": null, "name": "aplazame-sdk", "package_url": "https://pypi.org/project/aplazame-sdk/", "platform": "UNKNOWN", "project_url": "https://pypi.org/project/aplazame-sdk/", "project_urls": {"Download": "UNKNOWN", "Homepage": "https://github.com/aplazame/aplazame-sdk"}, "release_url": "https://pypi.org/project/aplazame-sdk/0.2.6/", "requires_dist": null, "requires_python": null, "summary": "Python SDK for Aplazame REST API", "version": "0.2.6", "yanked": false, "html_description": "<div class=\"project-description\">\n            <div id=\"aplazame-python-sdk\">\n<h2>Aplazame Python Sdk</h2>\n<p><a href=\"https://pypi.python.org/pypi/aplazame-sdk\" rel=\"nofollow\"><img alt=\"Build Status\" src=\"https://warehouse-camo.ingress.cmh1.psfhosted.org/e881bd40742a8abaa5f72320735ac973d00a2a73/68747470733a2f2f696d672e736869656c64732e696f2f707970692f762f61706c617a616d652d73646b2e737667\"></a> <a href=\"https://pypi.python.org/pypi/aplazame-sdk\" rel=\"nofollow\"><img alt=\"Wheel\" src=\"https://warehouse-camo.ingress.cmh1.psfhosted.org/f00e4a0be2294143d08153e24088f58f0f8d5407/68747470733a2f2f696d672e736869656c64732e696f2f707970692f776865656c2f61706c617a616d652d73646b2e737667\"></a> <a href=\"http://drone.aplazame.com/github.com/aplazame/aplazame-sdk\" rel=\"nofollow\"><img alt=\"Drone\" src=\"https://warehouse-camo.ingress.cmh1.psfhosted.org/a2a55c58f35d3e4f3e45a50f0a6ce07e844b7008/687474703a2f2f64726f6e652e61706c617a616d652e636f6d2f6170692f62616467652f6769746875622e636f6d2f61706c617a616d652f61706c617a616d652d73646b2f7374617475732e7376673f6272616e63683d6d6173746572\"></a> <a href=\"https://requires.io/github/aplazame/aplazame-sdk/requirements/?branch=master\" rel=\"nofollow\"><img alt=\"Requirements Status\" src=\"https://warehouse-camo.ingress.cmh1.psfhosted.org/0a67d8fd6b9dece905eb6aeda237fdcb2b06f28a/68747470733a2f2f72657175697265732e696f2f6769746875622f61706c617a616d652f61706c617a616d652d73646b2f726571756972656d656e74732e7376673f6272616e63683d6d6173746572\"></a> <a href=\"https://coveralls.io/github/aplazame/aplazame-sdk?branch=HEAD\" rel=\"nofollow\"><img alt=\"Coveralls\" src=\"https://warehouse-camo.ingress.cmh1.psfhosted.org/f19c0ec5c37fc1ac0e6d7d846b769a8b2379ab12/68747470733a2f2f636f766572616c6c732e696f2f7265706f732f61706c617a616d652f61706c617a616d652d73646b2f62616467652e7376673f6272616e63683d4845414426736572766963653d676974687562\"></a> <a href=\"https://codeclimate.com/github/aplazame/aplazame-sdk\" rel=\"nofollow\"><img alt=\"Code Climate\" src=\"https://warehouse-camo.ingress.cmh1.psfhosted.org/5b179672fcd679868f3cf09e43276c606028fa20/68747470733a2f2f636f6465636c696d6174652e636f6d2f6769746875622f61706c617a616d652f61706c617a616d652d73646b2f6261646765732f6770612e737667\"></a></p>\n<p><a href=\"https://aplazame.com\" rel=\"nofollow\"><img alt=\"Aplazame\" src=\"https://warehouse-camo.ingress.cmh1.psfhosted.org/39ea17bac37a7d9200d0d37c9c25a8b3da9e53d5/68747470733a2f2f61706c617a616d652e636f6d2f7374617469632f696d672f62616e6e6572732f62616e6e65722d3732382d77686974652d707974686f6e2e706e67\"></a></p>\n<p><a href=\"https://aplazame.com\" rel=\"nofollow\">Aplazame</a>, a consumer credit company, offers a payment system that can be\nused by online buyers to receive funding for their purchases.</p>\n<div id=\"installation\">\n<h3>Installation</h3>\n<p>To install aplazame-sdk, simply:</p>\n<pre>$ pip install aplazame-sdk\n</pre>\n</div>\n<div id=\"usage\">\n<h3>Usage</h3>\n<pre><span class=\"o\">&gt;&gt;&gt;</span> <span class=\"kn\">import</span> <span class=\"nn\">aplazame_sdk</span>\n<span class=\"o\">&gt;&gt;&gt;</span> <span class=\"n\">client</span> <span class=\"o\">=</span> <span class=\"n\">aplazame_sdk</span><span class=\"o\">.</span><span class=\"n\">Client</span><span class=\"p\">(</span><span class=\"s1\">'token'</span><span class=\"p\">,</span> <span class=\"n\">sandbox</span><span class=\"o\">=</span><span class=\"kc\">True</span><span class=\"p\">,</span> <span class=\"n\">version</span><span class=\"o\">=</span><span class=\"s1\">'1'</span><span class=\"p\">,</span> <span class=\"n\">ctype</span><span class=\"o\">=</span><span class=\"s1\">'json'</span><span class=\"p\">)</span>\n<span class=\"o\">&gt;&gt;&gt;</span> <span class=\"n\">r</span> <span class=\"o\">=</span> <span class=\"n\">client</span><span class=\"o\">.</span><span class=\"n\">orders</span><span class=\"p\">(</span><span class=\"n\">page</span><span class=\"o\">=</span><span class=\"mi\">2</span><span class=\"p\">)</span>\n<span class=\"o\">&gt;&gt;&gt;</span> <span class=\"n\">r</span><span class=\"o\">.</span><span class=\"n\">json</span><span class=\"p\">()</span>\n<span class=\"p\">{</span>\n  <span class=\"s2\">\"cursor\"</span><span class=\"p\">:</span> <span class=\"p\">{</span>\n    <span class=\"s2\">\"after\"</span><span class=\"p\">:</span> <span class=\"mi\">3</span><span class=\"p\">,</span>\n    <span class=\"s2\">\"before\"</span><span class=\"p\">:</span> <span class=\"mi\">1</span>\n  <span class=\"p\">},</span>\n  <span class=\"s2\">\"paging\"</span><span class=\"p\">:</span> <span class=\"p\">{</span>\n    <span class=\"s2\">\"count\"</span><span class=\"p\">:</span> <span class=\"mi\">314</span><span class=\"p\">,</span>\n    <span class=\"s2\">\"next\"</span><span class=\"p\">:</span> <span class=\"s2\">\"https://api.aplazame.com/orders?page=3\"</span><span class=\"p\">,</span>\n    <span class=\"s2\">\"previous\"</span><span class=\"p\">:</span> <span class=\"s2\">\"https://api.aplazame.com/orders?page=1\"</span>\n  <span class=\"p\">},</span>\n  <span class=\"s2\">\"results\"</span><span class=\"p\">:</span> <span class=\"p\">[</span>\n  <span class=\"p\">]</span>\n<span class=\"p\">}</span>\n<span class=\"o\">&gt;&gt;&gt;</span> <span class=\"n\">r</span><span class=\"o\">.</span><span class=\"n\">status_code</span>\n<span class=\"mi\">200</span>\n</pre>\n</div>\n<div id=\"exceptions\">\n<h3>Exceptions</h3>\n<pre><span class=\"o\">&gt;&gt;&gt;</span> <span class=\"kn\">import</span> <span class=\"nn\">aplazame_sdk</span>\n<span class=\"o\">&gt;&gt;&gt;</span> <span class=\"n\">client</span> <span class=\"o\">=</span> <span class=\"n\">aplazame_sdk</span><span class=\"o\">.</span><span class=\"n\">Client</span><span class=\"p\">(</span><span class=\"s1\">'token'</span><span class=\"p\">)</span>\n<span class=\"o\">&gt;&gt;&gt;</span> <span class=\"k\">try</span><span class=\"p\">:</span>\n<span class=\"o\">...</span>     <span class=\"n\">r</span> <span class=\"o\">=</span> <span class=\"n\">client</span><span class=\"o\">.</span><span class=\"n\">get_order</span><span class=\"p\">(</span><span class=\"s1\">'buh'</span><span class=\"p\">)</span>\n<span class=\"o\">...</span> <span class=\"k\">except</span> <span class=\"n\">aplazame_sdk</span><span class=\"o\">.</span><span class=\"n\">AplazameError</span> <span class=\"k\">as</span> <span class=\"n\">err</span><span class=\"p\">:</span>\n<span class=\"o\">...</span>     <span class=\"n\">err</span><span class=\"o\">.</span><span class=\"n\">code</span>\n<span class=\"mi\">404</span>\n</pre>\n</div>\n<div id=\"http\">\n<h3>Http</h3>\n<pre><span class=\"nf\">GET</span> <span class=\"nn\">/orders</span> <span class=\"kr\">HTTP</span><span class=\"o\">/</span><span class=\"m\">1.1</span>\n<span class=\"na\">Accept</span><span class=\"o\">:</span> <span class=\"l\">application/vnd.aplazame.sandbox.v1+json</span>\n<span class=\"na\">Authorization</span><span class=\"o\">:</span> <span class=\"l\">Bearer -&gt;token&lt;-</span>\n<span class=\"na\">Host</span><span class=\"o\">:</span> <span class=\"l\">api.aplazame.com</span>\n\nHTTP/1.1 200 OK\nContent-Type: application/vnd.aplazame.sandbox.v1+json\n</pre>\n</div>\n<div id=\"documentation\">\n<h3>Documentation</h3>\n<p>Documentation is available at <a href=\"http://docs.aplazame.com\" rel=\"nofollow\">docs.aplazame.com</a>.</p>\n</div>\n</div>\n<div id=\"change-log\">\n<h2>Change Log</h2>\n<div id=\"id1\">\n<h3><a href=\"https://github.com/aplazame/aplazame-sdk/tree/v0.2.6\" rel=\"nofollow\">0.2.6</a> (2015-12-11)</h3>\n<p><a href=\"https://github.com/aplazame/aplazame-sdk/compare/v0.2.5...v0.2.6\" rel=\"nofollow\">Full Changelog v0.2.6</a></p>\n<ul>\n<li>Replace detail by get</li>\n<li>Fix tests</li>\n</ul>\n</div>\n<div id=\"id2\">\n<h3><a href=\"https://github.com/aplazame/aplazame-sdk/tree/v0.2.5\" rel=\"nofollow\">0.2.5</a> (2015-12-11)</h3>\n<p><a href=\"https://github.com/aplazame/aplazame-sdk/compare/v0.2.4...v0.2.5\" rel=\"nofollow\">Full Changelog v0.2.5</a></p>\n<ul>\n<li>Operations and payments summary</li>\n<li>Tests</li>\n</ul>\n</div>\n<div id=\"id3\">\n<h3><a href=\"https://github.com/aplazame/aplazame-sdk/tree/v0.2.4\" rel=\"nofollow\">0.2.4</a> (2015-12-05)</h3>\n<p><a href=\"https://github.com/aplazame/aplazame-sdk/compare/v0.2.3...v0.2.4\" rel=\"nofollow\">Full Changelog v0.2.4</a></p>\n<ul>\n<li>Instalment payments</li>\n<li>Tests</li>\n</ul>\n</div>\n<div id=\"id4\">\n<h3><a href=\"https://github.com/aplazame/aplazame-sdk/tree/v0.2.3\" rel=\"nofollow\">0.2.3</a> (2015-10-13)</h3>\n<p><a href=\"https://github.com/aplazame/aplazame-sdk/compare/v0.2.2...v0.2.3\" rel=\"nofollow\">Full Changelog v0.2.3</a></p>\n<ul>\n<li>Payments</li>\n<li>Merchant requests</li>\n<li>Tests</li>\n</ul>\n</div>\n<div id=\"id5\">\n<h3><a href=\"https://github.com/aplazame/aplazame-sdk/tree/v0.2.2\" rel=\"nofollow\">0.2.2</a> (2015-09-15)</h3>\n<p><a href=\"https://github.com/aplazame/aplazame-sdk/compare/v0.2.1...v0.2.2\" rel=\"nofollow\">Full Changelog v0.2.2</a></p>\n<ul>\n<li>Fix lists kwargs</li>\n<li>Add /me and operations</li>\n<li>ci pull request strategy</li>\n<li>ci publish on pypi</li>\n<li>ci package versioning</li>\n</ul>\n</div>\n<div id=\"id6\">\n<h3><a href=\"https://github.com/aplazame/aplazame-sdk/tree/v0.2.1\" rel=\"nofollow\">0.2.1</a> (2015-08-24)</h3>\n<p><a href=\"https://github.com/aplazame/aplazame-sdk/compare/v0.2.0...v0.2.1\" rel=\"nofollow\">Full Changelog v0.2.1</a></p>\n<ul>\n<li>ci deploy master</li>\n<li>Simulator request</li>\n<li>Fix minor errors</li>\n</ul>\n</div>\n<div id=\"id7\">\n<h3><a href=\"https://github.com/aplazame/aplazame-sdk/tree/v0.2.0\" rel=\"nofollow\">0.2.0</a> (2015-07-20)</h3>\n<ul>\n<li>Makefile</li>\n<li>ci with drone.io</li>\n<li>Coverage 100%</li>\n<li>Test and build requirements</li>\n<li>Add badges</li>\n<li>Get method params strategy</li>\n</ul>\n</div>\n</div>\n\n          </div>"}, "last_serial": 1857689, "releases": {"0.2.0": [{"comment_text": "", "digests": {"md5": "86bbf6a7439b7fa3eff15f2013643278", "sha256": "1527e1d73c6d06ce1c34b70d6005baaa1001631528f339ce60802aa2b6c2017a"}, "downloads": -1, "filename": "aplazame_sdk-0.2.0-py2.py3-none-any.whl", "has_sig": false, "md5_digest": "86bbf6a7439b7fa3eff15f2013643278", "packagetype": "bdist_wheel", "python_version": "2.7", "requires_python": null, "size": 6121, "upload_time": "2015-07-20T21:06:18", "upload_time_iso_8601": "2015-07-20T21:06:18.144450Z", "url": "https://files.pythonhosted.org/packages/dc/a5/5ac4ac0a7b35d4b5e9ed71fcfc6453793b4fc57b7f809f76c47c3ad16e53/aplazame_sdk-0.2.0-py2.py3-none-any.whl", "yanked": false}, {"comment_text": "", "digests": {"md5": "4ac28deb2692d0ec80a359ab0a40cdbb", "sha256": "3dceed50275b24156d2912a441579bc91751e1a2fe7428fbee60f78cfe6f37de"}, "downloads": -1, "filename": "aplazame-sdk-0.2.0.tar.gz", "has_sig": false, "md5_digest": "4ac28deb2692d0ec80a359ab0a40cdbb", "packagetype": "sdist", "python_version": "source", "requires_python": null, "size": 8561, "upload_time": "2015-07-20T21:06:13", "upload_time_iso_8601": "2015-07-20T21:06:13.879244Z", "url": "https://files.pythonhosted.org/packages/be/3f/b0f88c7041c2363c138804ea2448dc0baae7337e8b12aee39ec85fc50b34/aplazame-sdk-0.2.0.tar.gz", "yanked": false}], "0.2.1": [{"comment_text": "", "digests": {"md5": "b85577ad550e2e8531fbbd280dd175bf", "sha256": "e7277411d532ca47ddd2d820b90683b09a1277d5542b1bd0bb2372a4b6d1e100"}, "downloads": -1, "filename": "aplazame-sdk-0.2.1.b.tar.gz", "has_sig": false, "md5_digest": "b85577ad550e2e8531fbbd280dd175bf", "packagetype": "sdist", "python_version": "source", "requires_python": null, "size": 8957, "upload_time": "2015-08-24T15:18:33", "upload_time_iso_8601": "2015-08-24T15:18:33.624501Z", "url": "https://files.pythonhosted.org/packages/57/95/e5805b3ea7827ad66a1b06ff9d007e16b7847ec59dcd9305b58dba5c5f4c/aplazame-sdk-0.2.1.b.tar.gz", "yanked": false}, {"comment_text": "", "digests": {"md5": "38edd4b492fd968c81f55af9c837dc32", "sha256": "0b14c913a83929487e5a334b6a2fac535c11e84d08f14596bddc31f192a7e56e"}, "downloads": -1, "filename": "aplazame_sdk-0.2.1-py2.py3-b-any.whl", "has_sig": false, "md5_digest": "38edd4b492fd968c81f55af9c837dc32", "packagetype": "bdist_wheel", "python_version": "any", "requires_python": null, "size": 6274, "upload_time": "2015-08-24T15:21:23", "upload_time_iso_8601": "2015-08-24T15:21:23.635242Z", "url": "https://files.pythonhosted.org/packages/b1/ee/29d814ab670578caf3feb304d767711872809b0d858db3b539ff1b3f93d0/aplazame_sdk-0.2.1-py2.py3-b-any.whl", "yanked": false}], "0.2.2": [{"comment_text": "", "digests": {"md5": "12593114da965d3e5265aa9e68f93dd4", "sha256": "be1e614f268980cf3361ac3b5703acaf324b26aece50c90d2711e044fec13a65"}, "downloads": -1, "filename": "aplazame_sdk-0.2.2-py2.py3-none-any.whl", "has_sig": false, "md5_digest": "12593114da965d3e5265aa9e68f93dd4", "packagetype": "bdist_wheel", "python_version": "2.7", "requires_python": null, "size": 6533, "upload_time": "2015-09-15T22:09:16", "upload_time_iso_8601": "2015-09-15T22:09:16.217683Z", "url": "https://files.pythonhosted.org/packages/35/6e/d3a5385c384ed7c54c22067af48a48d898109680b39579c2cb7ae68dac36/aplazame_sdk-0.2.2-py2.py3-none-any.whl", "yanked": false}, {"comment_text": "", "digests": {"md5": "59c055dfa99bba8689eb5c727cf95d49", "sha256": "aa4dbac19cbef38772457a573d4305974df136bad429b2160e32f4f48133ad37"}, "downloads": -1, "filename": "aplazame-sdk-0.2.2.tar.gz", "has_sig": false, "md5_digest": "59c055dfa99bba8689eb5c727cf95d49", "packagetype": "sdist", "python_version": "source", "requires_python": null, "size": 8292, "upload_time": "2015-09-15T22:09:11", "upload_time_iso_8601": "2015-09-15T22:09:11.740411Z", "url": "https://files.pythonhosted.org/packages/c6/92/c5cc3f9920daf0d6069dea5d4d15bb18ea28cab708d5b4ef85478e61907a/aplazame-sdk-0.2.2.tar.gz", "yanked": false}], "0.2.3": [{"comment_text": "", "digests": {"md5": "5c70c20e4b675f425786ad3846b96de2", "sha256": "1ee407a942ef76e6ab425947db44543c1dd7a07807541fdefdc5975230b662ab"}, "downloads": -1, "filename": "aplazame_sdk-0.2.3-py2.py3-none-any.whl", "has_sig": false, "md5_digest": "5c70c20e4b675f425786ad3846b96de2", "packagetype": "bdist_wheel", "python_version": "2.7", "requires_python": null, "size": 6649, "upload_time": "2015-10-13T16:44:29", "upload_time_iso_8601": "2015-10-13T16:44:29.301331Z", "url": "https://files.pythonhosted.org/packages/57/49/77af608c2c31c038975c06a157d08ffd56f9da7f01e5d4d9dbabec1accb5/aplazame_sdk-0.2.3-py2.py3-none-any.whl", "yanked": false}, {"comment_text": "", "digests": {"md5": "a05e7ac17be7e2f09f4922044441124e", "sha256": "8be4d005bb4fa7b563a83ce5c02a1e75e9cf19bf516331d408d82ff7f761d598"}, "downloads": -1, "filename": "aplazame-sdk-0.2.3.tar.gz", "has_sig": false, "md5_digest": "a05e7ac17be7e2f09f4922044441124e", "packagetype": "sdist", "python_version": "source", "requires_python": null, "size": 8432, "upload_time": "2015-10-13T16:44:25", "upload_time_iso_8601": "2015-10-13T16:44:25.449673Z", "url": "https://files.pythonhosted.org/packages/d2/69/dcd18525b1ca2270d5b1c9ac4c802e41571c8638d76049262ec158a89b9f/aplazame-sdk-0.2.3.tar.gz", "yanked": false}], "0.2.4": [{"comment_text": "", "digests": {"md5": "69d7e2af4abd3143469585125f0c9a2a", "sha256": "0db49f53bf3724c45d4135776f54ac5ab9d497374ed2a78accb260bf9e56574c"}, "downloads": -1, "filename": "aplazame_sdk-0.2.4-py2.py3-none-any.whl", "has_sig": false, "md5_digest": "69d7e2af4abd3143469585125f0c9a2a", "packagetype": "bdist_wheel", "python_version": "2.7", "requires_python": null, "size": 6720, "upload_time": "2015-12-05T11:35:52", "upload_time_iso_8601": "2015-12-05T11:35:52.179927Z", "url": "https://files.pythonhosted.org/packages/b5/f8/20051f9ece41046612d2b2b7d8fd7c64c169d1e08a457af4c9a01eaaec42/aplazame_sdk-0.2.4-py2.py3-none-any.whl", "yanked": false}, {"comment_text": "", "digests": {"md5": "425bb08a74b864291a842ef12dce78c1", "sha256": "0debf5f6f71535bf301ecb7698dcf05e85d93b651a53cbd6f4c48a44f06161d5"}, "downloads": -1, "filename": "aplazame-sdk-0.2.4.tar.gz", "has_sig": false, "md5_digest": "425bb08a74b864291a842ef12dce78c1", "packagetype": "sdist", "python_version": "source", "requires_python": null, "size": 8586, "upload_time": "2015-12-05T11:35:46", "upload_time_iso_8601": "2015-12-05T11:35:46.587805Z", "url": "https://files.pythonhosted.org/packages/fe/bd/912f49255468c65fed2877a2a2ef3d8d418430dace408af1b85fdc66b947/aplazame-sdk-0.2.4.tar.gz", "yanked": false}], "0.2.5": [{"comment_text": "", "digests": {"md5": "020f8d5f14cf78b2f46c32c508c672a5", "sha256": "449249f6c1a179ef92bc22867401b732cf77d2cf35d0749addfa533fc743aa77"}, "downloads": -1, "filename": "aplazame_sdk-0.2.5-py2.py3-none-any.whl", "has_sig": false, "md5_digest": "020f8d5f14cf78b2f46c32c508c672a5", "packagetype": "bdist_wheel", "python_version": "2.7", "requires_python": null, "size": 6834, "upload_time": "2015-12-11T14:40:27", "upload_time_iso_8601": "2015-12-11T14:40:27.954289Z", "url": "https://files.pythonhosted.org/packages/2f/db/0610baf4fdb6bf9a238986d6b3f45484b5ca19b079b179a4e896465fde9c/aplazame_sdk-0.2.5-py2.py3-none-any.whl", "yanked": false}, {"comment_text": "", "digests": {"md5": "5f0749659293580f9949808242a63461", "sha256": "6b57d97e4c2e17600fdcfec21728354cf87f1a51195ccac3220e6922fbc53ea4"}, "downloads": -1, "filename": "aplazame-sdk-0.2.5.tar.gz", "has_sig": false, "md5_digest": "5f0749659293580f9949808242a63461", "packagetype": "sdist", "python_version": "source", "requires_python": null, "size": 8773, "upload_time": "2015-12-11T14:40:22", "upload_time_iso_8601": "2015-12-11T14:40:22.843120Z", "url": "https://files.pythonhosted.org/packages/4f/58/e3fbab3770d84075e49e7d94b7111c412cf024982fd29661b1dae5b966ee/aplazame-sdk-0.2.5.tar.gz", "yanked": false}], "0.2.6": [{"comment_text": "", "digests": {"md5": "6392a567a823419db20e6ae4ccc2b48d", "sha256": "392b5e5ca838e102e0390820b86615ab92dc6ea766abb3125bdb43497cc3a1bb"}, "downloads": -1, "filename": "aplazame_sdk-0.2.6-py2.py3-none-any.whl", "has_sig": false, "md5_digest": "6392a567a823419db20e6ae4ccc2b48d", "packagetype": "bdist_wheel", "python_version": "2.7", "requires_python": null, "size": 7054, "upload_time": "2015-12-11T15:32:21", "upload_time_iso_8601": "2015-12-11T15:32:21.358884Z", "url": "https://files.pythonhosted.org/packages/18/09/7645f1dd5bc0989427045579f8194930e7a513777fb293772a51e5f412d2/aplazame_sdk-0.2.6-py2.py3-none-any.whl", "yanked": false}, {"comment_text": "", "digests": {"md5": "dd6d2fc8b83d0fb3034e45ddf233df69", "sha256": "64c22716bf553c07f94271db5b64c3094b45930d712c05f2fde01c9c93ab9c3d"}, "downloads": -1, "filename": "aplazame-sdk-0.2.6.tar.gz", "has_sig": false, "md5_digest": "dd6d2fc8b83d0fb3034e45ddf233df69", "packagetype": "sdist", "python_version": "source", "requires_python": null, "size": 8957, "upload_time": "2015-12-11T15:32:11", "upload_time_iso_8601": "2015-12-11T15:32:11.902008Z", "url": "https://files.pythonhosted.org/packages/ba/65/d9a1dafd951052017144a9d46384788785609d4f555c555291d98ae660dc/aplazame-sdk-0.2.6.tar.gz", "yanked": false}]}, "urls": [{"comment_text": "", "digests": {"md5": "6392a567a823419db20e6ae4ccc2b48d", "sha256": "392b5e5ca838e102e0390820b86615ab92dc6ea766abb3125bdb43497cc3a1bb"}, "downloads": -1, "filename": "aplazame_sdk-0.2.6-py2.py3-none-any.whl", "has_sig": false, "md5_digest": "6392a567a823419db20e6ae4ccc2b48d", "packagetype": "bdist_wheel", "python_version": "2.7", "requires_python": null, "size": 7054, "upload_time": "2015-12-11T15:32:21", "upload_time_iso_8601": "2015-12-11T15:32:21.358884Z", "url": "https://files.pythonhosted.org/packages/18/09/7645f1dd5bc0989427045579f8194930e7a513777fb293772a51e5f412d2/aplazame_sdk-0.2.6-py2.py3-none-any.whl", "yanked": false}, {"comment_text": "", "digests": {"md5": "dd6d2fc8b83d0fb3034e45ddf233df69", "sha256": "64c22716bf553c07f94271db5b64c3094b45930d712c05f2fde01c9c93ab9c3d"}, "downloads": -1, "filename": "aplazame-sdk-0.2.6.tar.gz", "has_sig": false, "md5_digest": "dd6d2fc8b83d0fb3034e45ddf233df69", "packagetype": "sdist", "python_version": "source", "requires_python": null, "size": 8957, "upload_time": "2015-12-11T15:32:11", "upload_time_iso_8601": "2015-12-11T15:32:11.902008Z", "url": "https://files.pythonhosted.org/packages/ba/65/d9a1dafd951052017144a9d46384788785609d4f555c555291d98ae660dc/aplazame-sdk-0.2.6.tar.gz", "yanked": false}], "timestamp": "Thu May  7 18:17:43 2020"}