{"info": {"author": "Pocheng, Scott", "author_email": "pcghuang@gmail.com, scott820914@gmail.com", "bugtrack_url": null, "classifiers": ["Development Status :: 4 - Beta", "Intended Audience :: Developers", "License :: OSI Approved :: BSD License", "Operating System :: OS Independent", "Programming Language :: Python :: 3", "Programming Language :: Python :: 3.6"], "description": "# Django REST Framework Google JSON Style API\n\n[![Build Status](https://travis-ci.com/Envive/django-rest-framework-google-json-style-api.svg?branch=master)](https://travis-ci.com/Envive/django-rest-framework-google-json-style-api) \n[![codecov.io](https://codecov.io/github/envive/django-rest-framework-google-json-style-api/coverage.svg?branch=master)](https://codecov.io/github/envive/django-rest-framework-google-json-style-api)\n[![PyPI version](https://badge.fury.io/py/django-rest-framework-google-json-style-api.svg)](https://badge.fury.io/py/django-rest-framework-google-json-style-api)\n\n## Format specification\n- https://google.github.io/styleguide/jsoncstyleguide.xml\n\n## Installation\n\nAt the command line:\n\n```\n$ pip install django-rest-framework-google-json-style-api\n```\n\nAdd the render and parser to your django settings file.\n\n```python\n# ...\nREST_FRAMEWORK = {\n    'PAGE_SIZE': 10,\n    'DEFAULT_PAGINATION_CLASS':\n        'rest_framework_google_json_style_api.pagination.GoogleJsonStylePageNumberPagination',\n    'DEFAULT_RENDERER_CLASSES': (\n        'rest_framework_google_json_style_api.renderers.JSONRenderer',\n        # Any other renders\n    ),\n    'DEFAULT_PARSER_CLASSES': (\n        'rest_framework_google_json_style_api.parsers.JSONParser',\n        # Any other parsers\n    ),\n}\n# ...\n```\n\n## Goals\nBy default, Django REST Framework will produce a response like:\n\n```json\n{\n    \"id\": 1,\n    \"username\": \"scott\",\n    \"full_name\": \"Scott Chang\"\n}\n```\n\nand\n\n```json\n[\n    {\n        \"id\": 1,\n        \"username\": \"scott\",\n        \"full_name\": \"Scott Chang\"\n    },\n    {\n        \"id\": 2,\n        \"username\": \"pocheng\",\n        \"full_name\": \"Pocheng Huang\"\n    }\n]\n```\n\nGoogle JSON Style Guide shows a response to look like the following:\n\n```json\n{\n    \"data\": {\n        \"id\": 1,\n        \"username\": \"scott\",\n        \"fullName\": \"Scott Chang\"\n    }\n}\n```\n\nand\n\n```json\n{\n    \"data\": {\n        \"items\":[\n            {\n                \"id\": 1,\n                \"username\": \"scott\",\n                \"fullName\": \"Scott Chang\"\n            },\n            {\n                \"id\": 2,\n                \"username\": \"pocheng\",\n                \"fullName\": \"Pocheng Huang\"\n            }\n        ]\n    }\n}\n```\n\nGoogle JSON Style Guide uses camel case for field names. So, by default the package uses camel case.\nIf you want to use underscores, you must specify it in your django settings file.\n\n```python\nGOOGLE_JSON_STYLE_API = {\n    # ...\n    'CAMELIZE': False\n    # ...\n}\n```\n\n## Pagination\n```json\n{\n    \"method\": \"list\",\n    \"params\": {\n        \"page\": \"1\",\n        \"pageSize\": \"2\"\n    },\n    \"data\": {\n        \"currentItemCount\": 2,\n        \"itemsPerPage\": 2,\n        \"totalItems\": 200,\n        \"pageIndex\": 1,\n        \"totalPages\": 100,\n        \"nextLink\": \"http://example.com/api/v1/?page=2&page_size=2\",\n        \"previousLink\": null,\n        \"items\": [\n            {\n                \"id\": 1,\n                \"username\": \"scott\",\n                \"fullName\": \"Scott Chang\"\n            },\n            {\n                \"id\": 2,\n                \"username\": \"pocheng\",\n                \"fullName\": \"Pocheng Huang\"\n            }\n        ]\n    }\n}\n```\n\n## Attach meta to data object\n\n#### Example\nLet's add the count of items in the data object.\n\n```python\nclass AuthorViewSet(viewsets.ModelViewSet):\n    queryset = Author.objects.all()\n    # ...\n\n    def list(self, request, *args, **kwargs):\n        response = super(AuthorViewSet, self).list(request, *args, **kwargs)\n        response.data = {\n            'meta': {\n                # Add meta data in here\n                'num_items': self.queryset.count(),\n            },\n            # Keep original data in results\n            'results': response.data\n        }\n```\n\n#### Response\n\n```json\n{\n    \"data\": {\n        \"numItems\": 2,\n        \"items\":[\n            {\n                \"id\": 1,\n                \"username\": \"scott\",\n                \"fullName\": \"Scott Chang\"\n            },\n            {\n                \"id\": 2,\n                \"username\": \"pocheng\",\n                \"fullName\": \"Pocheng Huang\"\n            }\n        ]\n    }\n}\n```\n\n\n## Underscoreize Options\nThere are two conventions of snake case.\n\n### Case 1 (default)\n```\nv2Counter -> v_2_counter\nfooBar2 -> foo_bar_2\n```\n\n### Case 2\n```\nv2Counter -> v2_counter\nfooBar2 -> foo_bar2\n```\n\nBy default, the package uses the first case. To use the second case, specify it in your django settings file. The setting only works when you use camel case(default).\n\n```python\nGOOGLE_JSON_STYLE_API = {\n    # ...\n    'JSON_UNDERSCOREIZE': {\n        'no_underscore_before_number': True,\n    },\n    # ...\n}\n```", "description_content_type": "text/markdown", "docs_url": null, "download_url": "", "downloads": {"last_day": -1, "last_month": -1, "last_week": -1}, "home_page": "https://github.com/Envive", "keywords": "", "license": "BSD License", "maintainer": "", "maintainer_email": "", "name": "django-rest-framework-google-json-style-api", "package_url": "https://pypi.org/project/django-rest-framework-google-json-style-api/", "platform": "", "project_url": "https://pypi.org/project/django-rest-framework-google-json-style-api/", "project_urls": {"Homepage": "https://github.com/Envive"}, "release_url": "https://pypi.org/project/django-rest-framework-google-json-style-api/1.2.2/", "requires_dist": null, "requires_python": "", "summary": "Make Google Json Style and Django Rest Framework play nice together.", "version": "1.2.2", "yanked": false, "html_description": "<div class=\"project-description\">\n            <h1>Django REST Framework Google JSON Style API</h1>\n<p><a href=\"https://travis-ci.com/Envive/django-rest-framework-google-json-style-api\" rel=\"nofollow\"><img alt=\"Build Status\" src=\"https://warehouse-camo.ingress.cmh1.psfhosted.org/c93121133976ba8211339302fa2845b7eaf9d51d/68747470733a2f2f7472617669732d63692e636f6d2f456e766976652f646a616e676f2d726573742d6672616d65776f726b2d676f6f676c652d6a736f6e2d7374796c652d6170692e7376673f6272616e63683d6d6173746572\"></a>\n<a href=\"https://codecov.io/github/envive/django-rest-framework-google-json-style-api\" rel=\"nofollow\"><img alt=\"codecov.io\" src=\"https://warehouse-camo.ingress.cmh1.psfhosted.org/1d382ab25b12419dee39761556497111ae4c8b63/68747470733a2f2f636f6465636f762e696f2f6769746875622f656e766976652f646a616e676f2d726573742d6672616d65776f726b2d676f6f676c652d6a736f6e2d7374796c652d6170692f636f7665726167652e7376673f6272616e63683d6d6173746572\"></a>\n<a href=\"https://badge.fury.io/py/django-rest-framework-google-json-style-api\" rel=\"nofollow\"><img alt=\"PyPI version\" src=\"https://warehouse-camo.ingress.cmh1.psfhosted.org/3cce5e0d85be14e55569eec2dcd2a99078f91236/68747470733a2f2f62616467652e667572792e696f2f70792f646a616e676f2d726573742d6672616d65776f726b2d676f6f676c652d6a736f6e2d7374796c652d6170692e737667\"></a></p>\n<h2>Format specification</h2>\n<ul>\n<li><a href=\"https://google.github.io/styleguide/jsoncstyleguide.xml\" rel=\"nofollow\">https://google.github.io/styleguide/jsoncstyleguide.xml</a></li>\n</ul>\n<h2>Installation</h2>\n<p>At the command line:</p>\n<pre><code>$ pip install django-rest-framework-google-json-style-api\n</code></pre>\n<p>Add the render and parser to your django settings file.</p>\n<pre><span class=\"c1\"># ...</span>\n<span class=\"n\">REST_FRAMEWORK</span> <span class=\"o\">=</span> <span class=\"p\">{</span>\n    <span class=\"s1\">'PAGE_SIZE'</span><span class=\"p\">:</span> <span class=\"mi\">10</span><span class=\"p\">,</span>\n    <span class=\"s1\">'DEFAULT_PAGINATION_CLASS'</span><span class=\"p\">:</span>\n        <span class=\"s1\">'rest_framework_google_json_style_api.pagination.GoogleJsonStylePageNumberPagination'</span><span class=\"p\">,</span>\n    <span class=\"s1\">'DEFAULT_RENDERER_CLASSES'</span><span class=\"p\">:</span> <span class=\"p\">(</span>\n        <span class=\"s1\">'rest_framework_google_json_style_api.renderers.JSONRenderer'</span><span class=\"p\">,</span>\n        <span class=\"c1\"># Any other renders</span>\n    <span class=\"p\">),</span>\n    <span class=\"s1\">'DEFAULT_PARSER_CLASSES'</span><span class=\"p\">:</span> <span class=\"p\">(</span>\n        <span class=\"s1\">'rest_framework_google_json_style_api.parsers.JSONParser'</span><span class=\"p\">,</span>\n        <span class=\"c1\"># Any other parsers</span>\n    <span class=\"p\">),</span>\n<span class=\"p\">}</span>\n<span class=\"c1\"># ...</span>\n</pre>\n<h2>Goals</h2>\n<p>By default, Django REST Framework will produce a response like:</p>\n<pre><span class=\"p\">{</span>\n    <span class=\"nt\">\"id\"</span><span class=\"p\">:</span> <span class=\"mi\">1</span><span class=\"p\">,</span>\n    <span class=\"nt\">\"username\"</span><span class=\"p\">:</span> <span class=\"s2\">\"scott\"</span><span class=\"p\">,</span>\n    <span class=\"nt\">\"full_name\"</span><span class=\"p\">:</span> <span class=\"s2\">\"Scott Chang\"</span>\n<span class=\"p\">}</span>\n</pre>\n<p>and</p>\n<pre><span class=\"p\">[</span>\n    <span class=\"p\">{</span>\n        <span class=\"nt\">\"id\"</span><span class=\"p\">:</span> <span class=\"mi\">1</span><span class=\"p\">,</span>\n        <span class=\"nt\">\"username\"</span><span class=\"p\">:</span> <span class=\"s2\">\"scott\"</span><span class=\"p\">,</span>\n        <span class=\"nt\">\"full_name\"</span><span class=\"p\">:</span> <span class=\"s2\">\"Scott Chang\"</span>\n    <span class=\"p\">},</span>\n    <span class=\"p\">{</span>\n        <span class=\"nt\">\"id\"</span><span class=\"p\">:</span> <span class=\"mi\">2</span><span class=\"p\">,</span>\n        <span class=\"nt\">\"username\"</span><span class=\"p\">:</span> <span class=\"s2\">\"pocheng\"</span><span class=\"p\">,</span>\n        <span class=\"nt\">\"full_name\"</span><span class=\"p\">:</span> <span class=\"s2\">\"Pocheng Huang\"</span>\n    <span class=\"p\">}</span>\n<span class=\"p\">]</span>\n</pre>\n<p>Google JSON Style Guide shows a response to look like the following:</p>\n<pre><span class=\"p\">{</span>\n    <span class=\"nt\">\"data\"</span><span class=\"p\">:</span> <span class=\"p\">{</span>\n        <span class=\"nt\">\"id\"</span><span class=\"p\">:</span> <span class=\"mi\">1</span><span class=\"p\">,</span>\n        <span class=\"nt\">\"username\"</span><span class=\"p\">:</span> <span class=\"s2\">\"scott\"</span><span class=\"p\">,</span>\n        <span class=\"nt\">\"fullName\"</span><span class=\"p\">:</span> <span class=\"s2\">\"Scott Chang\"</span>\n    <span class=\"p\">}</span>\n<span class=\"p\">}</span>\n</pre>\n<p>and</p>\n<pre><span class=\"p\">{</span>\n    <span class=\"nt\">\"data\"</span><span class=\"p\">:</span> <span class=\"p\">{</span>\n        <span class=\"nt\">\"items\"</span><span class=\"p\">:[</span>\n            <span class=\"p\">{</span>\n                <span class=\"nt\">\"id\"</span><span class=\"p\">:</span> <span class=\"mi\">1</span><span class=\"p\">,</span>\n                <span class=\"nt\">\"username\"</span><span class=\"p\">:</span> <span class=\"s2\">\"scott\"</span><span class=\"p\">,</span>\n                <span class=\"nt\">\"fullName\"</span><span class=\"p\">:</span> <span class=\"s2\">\"Scott Chang\"</span>\n            <span class=\"p\">},</span>\n            <span class=\"p\">{</span>\n                <span class=\"nt\">\"id\"</span><span class=\"p\">:</span> <span class=\"mi\">2</span><span class=\"p\">,</span>\n                <span class=\"nt\">\"username\"</span><span class=\"p\">:</span> <span class=\"s2\">\"pocheng\"</span><span class=\"p\">,</span>\n                <span class=\"nt\">\"fullName\"</span><span class=\"p\">:</span> <span class=\"s2\">\"Pocheng Huang\"</span>\n            <span class=\"p\">}</span>\n        <span class=\"p\">]</span>\n    <span class=\"p\">}</span>\n<span class=\"p\">}</span>\n</pre>\n<p>Google JSON Style Guide uses camel case for field names. So, by default the package uses camel case.\nIf you want to use underscores, you must specify it in your django settings file.</p>\n<pre><span class=\"n\">GOOGLE_JSON_STYLE_API</span> <span class=\"o\">=</span> <span class=\"p\">{</span>\n    <span class=\"c1\"># ...</span>\n    <span class=\"s1\">'CAMELIZE'</span><span class=\"p\">:</span> <span class=\"kc\">False</span>\n    <span class=\"c1\"># ...</span>\n<span class=\"p\">}</span>\n</pre>\n<h2>Pagination</h2>\n<pre><span class=\"p\">{</span>\n    <span class=\"nt\">\"method\"</span><span class=\"p\">:</span> <span class=\"s2\">\"list\"</span><span class=\"p\">,</span>\n    <span class=\"nt\">\"params\"</span><span class=\"p\">:</span> <span class=\"p\">{</span>\n        <span class=\"nt\">\"page\"</span><span class=\"p\">:</span> <span class=\"s2\">\"1\"</span><span class=\"p\">,</span>\n        <span class=\"nt\">\"pageSize\"</span><span class=\"p\">:</span> <span class=\"s2\">\"2\"</span>\n    <span class=\"p\">},</span>\n    <span class=\"nt\">\"data\"</span><span class=\"p\">:</span> <span class=\"p\">{</span>\n        <span class=\"nt\">\"currentItemCount\"</span><span class=\"p\">:</span> <span class=\"mi\">2</span><span class=\"p\">,</span>\n        <span class=\"nt\">\"itemsPerPage\"</span><span class=\"p\">:</span> <span class=\"mi\">2</span><span class=\"p\">,</span>\n        <span class=\"nt\">\"totalItems\"</span><span class=\"p\">:</span> <span class=\"mi\">200</span><span class=\"p\">,</span>\n        <span class=\"nt\">\"pageIndex\"</span><span class=\"p\">:</span> <span class=\"mi\">1</span><span class=\"p\">,</span>\n        <span class=\"nt\">\"totalPages\"</span><span class=\"p\">:</span> <span class=\"mi\">100</span><span class=\"p\">,</span>\n        <span class=\"nt\">\"nextLink\"</span><span class=\"p\">:</span> <span class=\"s2\">\"http://example.com/api/v1/?page=2&amp;page_size=2\"</span><span class=\"p\">,</span>\n        <span class=\"nt\">\"previousLink\"</span><span class=\"p\">:</span> <span class=\"kc\">null</span><span class=\"p\">,</span>\n        <span class=\"nt\">\"items\"</span><span class=\"p\">:</span> <span class=\"p\">[</span>\n            <span class=\"p\">{</span>\n                <span class=\"nt\">\"id\"</span><span class=\"p\">:</span> <span class=\"mi\">1</span><span class=\"p\">,</span>\n                <span class=\"nt\">\"username\"</span><span class=\"p\">:</span> <span class=\"s2\">\"scott\"</span><span class=\"p\">,</span>\n                <span class=\"nt\">\"fullName\"</span><span class=\"p\">:</span> <span class=\"s2\">\"Scott Chang\"</span>\n            <span class=\"p\">},</span>\n            <span class=\"p\">{</span>\n                <span class=\"nt\">\"id\"</span><span class=\"p\">:</span> <span class=\"mi\">2</span><span class=\"p\">,</span>\n                <span class=\"nt\">\"username\"</span><span class=\"p\">:</span> <span class=\"s2\">\"pocheng\"</span><span class=\"p\">,</span>\n                <span class=\"nt\">\"fullName\"</span><span class=\"p\">:</span> <span class=\"s2\">\"Pocheng Huang\"</span>\n            <span class=\"p\">}</span>\n        <span class=\"p\">]</span>\n    <span class=\"p\">}</span>\n<span class=\"p\">}</span>\n</pre>\n<h2>Attach meta to data object</h2>\n<h4>Example</h4>\n<p>Let's add the count of items in the data object.</p>\n<pre><span class=\"k\">class</span> <span class=\"nc\">AuthorViewSet</span><span class=\"p\">(</span><span class=\"n\">viewsets</span><span class=\"o\">.</span><span class=\"n\">ModelViewSet</span><span class=\"p\">):</span>\n    <span class=\"n\">queryset</span> <span class=\"o\">=</span> <span class=\"n\">Author</span><span class=\"o\">.</span><span class=\"n\">objects</span><span class=\"o\">.</span><span class=\"n\">all</span><span class=\"p\">()</span>\n    <span class=\"c1\"># ...</span>\n\n    <span class=\"k\">def</span> <span class=\"nf\">list</span><span class=\"p\">(</span><span class=\"bp\">self</span><span class=\"p\">,</span> <span class=\"n\">request</span><span class=\"p\">,</span> <span class=\"o\">*</span><span class=\"n\">args</span><span class=\"p\">,</span> <span class=\"o\">**</span><span class=\"n\">kwargs</span><span class=\"p\">):</span>\n        <span class=\"n\">response</span> <span class=\"o\">=</span> <span class=\"nb\">super</span><span class=\"p\">(</span><span class=\"n\">AuthorViewSet</span><span class=\"p\">,</span> <span class=\"bp\">self</span><span class=\"p\">)</span><span class=\"o\">.</span><span class=\"n\">list</span><span class=\"p\">(</span><span class=\"n\">request</span><span class=\"p\">,</span> <span class=\"o\">*</span><span class=\"n\">args</span><span class=\"p\">,</span> <span class=\"o\">**</span><span class=\"n\">kwargs</span><span class=\"p\">)</span>\n        <span class=\"n\">response</span><span class=\"o\">.</span><span class=\"n\">data</span> <span class=\"o\">=</span> <span class=\"p\">{</span>\n            <span class=\"s1\">'meta'</span><span class=\"p\">:</span> <span class=\"p\">{</span>\n                <span class=\"c1\"># Add meta data in here</span>\n                <span class=\"s1\">'num_items'</span><span class=\"p\">:</span> <span class=\"bp\">self</span><span class=\"o\">.</span><span class=\"n\">queryset</span><span class=\"o\">.</span><span class=\"n\">count</span><span class=\"p\">(),</span>\n            <span class=\"p\">},</span>\n            <span class=\"c1\"># Keep original data in results</span>\n            <span class=\"s1\">'results'</span><span class=\"p\">:</span> <span class=\"n\">response</span><span class=\"o\">.</span><span class=\"n\">data</span>\n        <span class=\"p\">}</span>\n</pre>\n<h4>Response</h4>\n<pre><span class=\"p\">{</span>\n    <span class=\"nt\">\"data\"</span><span class=\"p\">:</span> <span class=\"p\">{</span>\n        <span class=\"nt\">\"numItems\"</span><span class=\"p\">:</span> <span class=\"mi\">2</span><span class=\"p\">,</span>\n        <span class=\"nt\">\"items\"</span><span class=\"p\">:[</span>\n            <span class=\"p\">{</span>\n                <span class=\"nt\">\"id\"</span><span class=\"p\">:</span> <span class=\"mi\">1</span><span class=\"p\">,</span>\n                <span class=\"nt\">\"username\"</span><span class=\"p\">:</span> <span class=\"s2\">\"scott\"</span><span class=\"p\">,</span>\n                <span class=\"nt\">\"fullName\"</span><span class=\"p\">:</span> <span class=\"s2\">\"Scott Chang\"</span>\n            <span class=\"p\">},</span>\n            <span class=\"p\">{</span>\n                <span class=\"nt\">\"id\"</span><span class=\"p\">:</span> <span class=\"mi\">2</span><span class=\"p\">,</span>\n                <span class=\"nt\">\"username\"</span><span class=\"p\">:</span> <span class=\"s2\">\"pocheng\"</span><span class=\"p\">,</span>\n                <span class=\"nt\">\"fullName\"</span><span class=\"p\">:</span> <span class=\"s2\">\"Pocheng Huang\"</span>\n            <span class=\"p\">}</span>\n        <span class=\"p\">]</span>\n    <span class=\"p\">}</span>\n<span class=\"p\">}</span>\n</pre>\n<h2>Underscoreize Options</h2>\n<p>There are two conventions of snake case.</p>\n<h3>Case 1 (default)</h3>\n<pre><code>v2Counter -&gt; v_2_counter\nfooBar2 -&gt; foo_bar_2\n</code></pre>\n<h3>Case 2</h3>\n<pre><code>v2Counter -&gt; v2_counter\nfooBar2 -&gt; foo_bar2\n</code></pre>\n<p>By default, the package uses the first case. To use the second case, specify it in your django settings file. The setting only works when you use camel case(default).</p>\n<pre><span class=\"n\">GOOGLE_JSON_STYLE_API</span> <span class=\"o\">=</span> <span class=\"p\">{</span>\n    <span class=\"c1\"># ...</span>\n    <span class=\"s1\">'JSON_UNDERSCOREIZE'</span><span class=\"p\">:</span> <span class=\"p\">{</span>\n        <span class=\"s1\">'no_underscore_before_number'</span><span class=\"p\">:</span> <span class=\"kc\">True</span><span class=\"p\">,</span>\n    <span class=\"p\">},</span>\n    <span class=\"c1\"># ...</span>\n<span class=\"p\">}</span>\n</pre>\n\n          </div>"}, "last_serial": 7028394, "releases": {"0.1.1": [{"comment_text": "", "digests": {"md5": "25ef5ad7e5565a7f92d436f3ade15437", "sha256": "3712e59c04cee7e87ca6eafc40d3d0208c4aec1269a21a4af7f27bcc6c6fd015"}, "downloads": -1, "filename": "django-rest-framework-google-json-style-api-0.1.1.tar.gz", "has_sig": false, "md5_digest": "25ef5ad7e5565a7f92d436f3ade15437", "packagetype": "sdist", "python_version": "source", "requires_python": null, "size": 10884, "upload_time": "2019-01-25T08:25:17", "upload_time_iso_8601": "2019-01-25T08:25:17.098627Z", "url": "https://files.pythonhosted.org/packages/b6/d5/c5a37544e12f9cbbf92efa4546a22b839276ec94aeee228232195a4ea6b8/django-rest-framework-google-json-style-api-0.1.1.tar.gz", "yanked": false}], "1.0.0": [{"comment_text": "", "digests": {"md5": "c4bb4dc9895a796058b862897b5923cf", "sha256": "34b9949ee57fe04bd6e94c29a8aadabf060e487d89e50220de83266708b4e710"}, "downloads": -1, "filename": "django-rest-framework-google-json-style-api-1.0.0.tar.gz", "has_sig": false, "md5_digest": "c4bb4dc9895a796058b862897b5923cf", "packagetype": "sdist", "python_version": "source", "requires_python": null, "size": 11689, "upload_time": "2019-06-18T08:42:21", "upload_time_iso_8601": "2019-06-18T08:42:21.859169Z", "url": "https://files.pythonhosted.org/packages/39/db/562280637406ca3bb2678210ba05266fbc8b908eda72738bf1ce03b9c00d/django-rest-framework-google-json-style-api-1.0.0.tar.gz", "yanked": false}], "1.0.1": [{"comment_text": "", "digests": {"md5": "a9ae030e44c0efd8dc18ff497b12c2fe", "sha256": "0a6a0793091959ae741fd73f53a5887fe1beb0b6199d4496f852c86e059d2386"}, "downloads": -1, "filename": "django-rest-framework-google-json-style-api-1.0.1.tar.gz", "has_sig": false, "md5_digest": "a9ae030e44c0efd8dc18ff497b12c2fe", "packagetype": "sdist", "python_version": "source", "requires_python": null, "size": 11698, "upload_time": "2020-02-24T02:55:44", "upload_time_iso_8601": "2020-02-24T02:55:44.674897Z", "url": "https://files.pythonhosted.org/packages/b8/ed/7892187065b264d2a4a3c53c686eec979c66861ebafe74fb82ad81448546/django-rest-framework-google-json-style-api-1.0.1.tar.gz", "yanked": false}], "1.1.1": [{"comment_text": "", "digests": {"md5": "ca06ef75a6fda7c8b5346dc3846d3cdd", "sha256": "c3a41131017b2bcf85ceef0f0e5e45aa0d14715cd0a86d2017ac7ebbc2ba1bbe"}, "downloads": -1, "filename": "django-rest-framework-google-json-style-api-1.1.1.tar.gz", "has_sig": false, "md5_digest": "ca06ef75a6fda7c8b5346dc3846d3cdd", "packagetype": "sdist", "python_version": "source", "requires_python": null, "size": 11584, "upload_time": "2020-03-12T02:24:43", "upload_time_iso_8601": "2020-03-12T02:24:43.299357Z", "url": "https://files.pythonhosted.org/packages/8f/01/8e6d58a1234e2e762f89001e6ad424874bda57d4baabc93ac866d29a5521/django-rest-framework-google-json-style-api-1.1.1.tar.gz", "yanked": false}], "1.2.2": [{"comment_text": "", "digests": {"md5": "e232af54a32530a51400acf4aa44c4f2", "sha256": "b6c429fc26c9fe2a97d3015c989e754b1735cc3fc1afe210c3d9a6308d2975c6"}, "downloads": -1, "filename": "django-rest-framework-google-json-style-api-1.2.2.tar.gz", "has_sig": false, "md5_digest": "e232af54a32530a51400acf4aa44c4f2", "packagetype": "sdist", "python_version": "source", "requires_python": null, "size": 11579, "upload_time": "2020-04-16T00:27:07", "upload_time_iso_8601": "2020-04-16T00:27:07.823890Z", "url": "https://files.pythonhosted.org/packages/bb/b0/60ca1210ac391eea81679857f43a6e27ce5430b42c89e3c95bdd8490da26/django-rest-framework-google-json-style-api-1.2.2.tar.gz", "yanked": false}]}, "urls": [{"comment_text": "", "digests": {"md5": "e232af54a32530a51400acf4aa44c4f2", "sha256": "b6c429fc26c9fe2a97d3015c989e754b1735cc3fc1afe210c3d9a6308d2975c6"}, "downloads": -1, "filename": "django-rest-framework-google-json-style-api-1.2.2.tar.gz", "has_sig": false, "md5_digest": "e232af54a32530a51400acf4aa44c4f2", "packagetype": "sdist", "python_version": "source", "requires_python": null, "size": 11579, "upload_time": "2020-04-16T00:27:07", "upload_time_iso_8601": "2020-04-16T00:27:07.823890Z", "url": "https://files.pythonhosted.org/packages/bb/b0/60ca1210ac391eea81679857f43a6e27ce5430b42c89e3c95bdd8490da26/django-rest-framework-google-json-style-api-1.2.2.tar.gz", "yanked": false}], "timestamp": "Fri May  8 00:54:07 2020"}