{"info": {"author": "Willian Antunes", "author_email": "Willian Antunes <willian.lima.antunes@gmail.com>", "bugtrack_url": null, "classifiers": ["Environment :: Web Environment", "Framework :: Django :: 2.2", "Intended Audience :: Developers", "License :: OSI Approved :: MIT License", "Operating System :: OS Independent", "Programming Language :: Python :: 3.7"], "description": "# DRF Link Navigation Pagination\n\nYet another [thirdy party package for DRF Pagination](https://www.django-rest-framework.org/api-guide/pagination/). \n\nIf you want to change de host address located on `next` and `previous` fields, then this is the right thing to you. Take this body as an example:\n\n```json\n{\n  \"links\": {\n    \"next\": \"http://localhost/api/v1/entities/?limit=1&offset=2\",\n    \"previous\": \"http://localhost/api/v1/entities/limit=1\"\n  },\n  \"count\": 100,\n  \"results\": [\n    {\n      \"id\": \"bc6c6868-4e4d-4381-a785-f353ee7ecce5\"\n    }\n  ]\n}\n```\n\nUsing a reverse proxy (like AWS API Gateway) to intermediate between your API, adding `X-Drf-Change-Domain=chumaco` header to the request will make the client receive the following:\n\n```json\n{\n  \"links\": {\n    \"next\": \"http://chumaco/api/v1/entities/?limit=1&offset=2\",\n    \"previous\": \"http://chumaco/api/v1/entities/limit=1\"\n  },\n  \"count\": 100,\n  \"results\": [\n    {\n      \"id\": \"bc6c6868-4e4d-4381-a785-f353ee7ecce5\"\n    }\n  ]\n}\n```\n\n# Configuration process\n\nNot yet fully available, but feel free to see our tests to get insights.\n\n## Tests\n\nIn order to execute the tests:\n\n    pipenv run tox\n\n\n", "description_content_type": "text/markdown", "docs_url": null, "download_url": "", "downloads": {"last_day": -1, "last_month": -1, "last_week": -1}, "home_page": "https://github.com/juntossomosmais/drf-link-navigation-pagination", "keywords": "", "license": "MIT", "maintainer": "", "maintainer_email": "", "name": "drf-link-navigation-pagination", "package_url": "https://pypi.org/project/drf-link-navigation-pagination/", "platform": "", "project_url": "https://pypi.org/project/drf-link-navigation-pagination/", "project_urls": {"Homepage": "https://github.com/juntossomosmais/drf-link-navigation-pagination"}, "release_url": "https://pypi.org/project/drf-link-navigation-pagination/0.0.4/", "requires_dist": ["django", "djangorestframework"], "requires_python": "", "summary": "Yet another pagination class for DRF to set host address by header", "version": "0.0.4", "yanked": false, "html_description": "<div class=\"project-description\">\n            <h1>DRF Link Navigation Pagination</h1>\n<p>Yet another <a href=\"https://www.django-rest-framework.org/api-guide/pagination/\" rel=\"nofollow\">thirdy party package for DRF Pagination</a>.</p>\n<p>If you want to change de host address located on <code>next</code> and <code>previous</code> fields, then this is the right thing to you. Take this body as an example:</p>\n<pre><span class=\"p\">{</span>\n  <span class=\"nt\">\"links\"</span><span class=\"p\">:</span> <span class=\"p\">{</span>\n    <span class=\"nt\">\"next\"</span><span class=\"p\">:</span> <span class=\"s2\">\"http://localhost/api/v1/entities/?limit=1&amp;offset=2\"</span><span class=\"p\">,</span>\n    <span class=\"nt\">\"previous\"</span><span class=\"p\">:</span> <span class=\"s2\">\"http://localhost/api/v1/entities/limit=1\"</span>\n  <span class=\"p\">},</span>\n  <span class=\"nt\">\"count\"</span><span class=\"p\">:</span> <span class=\"mi\">100</span><span class=\"p\">,</span>\n  <span class=\"nt\">\"results\"</span><span class=\"p\">:</span> <span class=\"p\">[</span>\n    <span class=\"p\">{</span>\n      <span class=\"nt\">\"id\"</span><span class=\"p\">:</span> <span class=\"s2\">\"bc6c6868-4e4d-4381-a785-f353ee7ecce5\"</span>\n    <span class=\"p\">}</span>\n  <span class=\"p\">]</span>\n<span class=\"p\">}</span>\n</pre>\n<p>Using a reverse proxy (like AWS API Gateway) to intermediate between your API, adding <code>X-Drf-Change-Domain=chumaco</code> header to the request will make the client receive the following:</p>\n<pre><span class=\"p\">{</span>\n  <span class=\"nt\">\"links\"</span><span class=\"p\">:</span> <span class=\"p\">{</span>\n    <span class=\"nt\">\"next\"</span><span class=\"p\">:</span> <span class=\"s2\">\"http://chumaco/api/v1/entities/?limit=1&amp;offset=2\"</span><span class=\"p\">,</span>\n    <span class=\"nt\">\"previous\"</span><span class=\"p\">:</span> <span class=\"s2\">\"http://chumaco/api/v1/entities/limit=1\"</span>\n  <span class=\"p\">},</span>\n  <span class=\"nt\">\"count\"</span><span class=\"p\">:</span> <span class=\"mi\">100</span><span class=\"p\">,</span>\n  <span class=\"nt\">\"results\"</span><span class=\"p\">:</span> <span class=\"p\">[</span>\n    <span class=\"p\">{</span>\n      <span class=\"nt\">\"id\"</span><span class=\"p\">:</span> <span class=\"s2\">\"bc6c6868-4e4d-4381-a785-f353ee7ecce5\"</span>\n    <span class=\"p\">}</span>\n  <span class=\"p\">]</span>\n<span class=\"p\">}</span>\n</pre>\n<h1>Configuration process</h1>\n<p>Not yet fully available, but feel free to see our tests to get insights.</p>\n<h2>Tests</h2>\n<p>In order to execute the tests:</p>\n<pre><code>pipenv run tox\n</code></pre>\n\n          </div>"}, "last_serial": 6196841, "releases": {"0.0.1": [{"comment_text": "", "digests": {"md5": "f69f8b606d3e739c47fa4e6cfd1d2d51", "sha256": "cacc68a01b466c76d82dec10ba84504bcd6ccee093256688eda4f9a65eb55544"}, "downloads": -1, "filename": "drf_link_navigation_pagination-0.0.1-py3-none-any.whl", "has_sig": false, "md5_digest": "f69f8b606d3e739c47fa4e6cfd1d2d51", "packagetype": "bdist_wheel", "python_version": "py3", "requires_python": null, "size": 7550, "upload_time": "2019-11-22T19:19:02", "upload_time_iso_8601": "2019-11-22T19:19:02.496634Z", "url": "https://files.pythonhosted.org/packages/22/46/be1f7836c1ddabfc70216f2aa54a32c137242dc56b8272f08b653b2ac9d5/drf_link_navigation_pagination-0.0.1-py3-none-any.whl", "yanked": false}, {"comment_text": "", "digests": {"md5": "8f6c7415f94e6df3a2805dc6a2abb2f8", "sha256": "f9bee60056603653dcc688931f060ddc69ca56304fb2c38f53c59cc6c3bd8900"}, "downloads": -1, "filename": "drf-link-navigation-pagination-0.0.1.tar.gz", "has_sig": false, "md5_digest": "8f6c7415f94e6df3a2805dc6a2abb2f8", "packagetype": "sdist", "python_version": "source", "requires_python": null, "size": 4668, "upload_time": "2019-11-22T19:19:04", "upload_time_iso_8601": "2019-11-22T19:19:04.860638Z", "url": "https://files.pythonhosted.org/packages/35/60/40c3442b6503687fe8830fd45a27c06240819a599082342e97ecc4463b83/drf-link-navigation-pagination-0.0.1.tar.gz", "yanked": false}], "0.0.2": [{"comment_text": "", "digests": {"md5": "d83d95a8141ad28772c1510726fb5a57", "sha256": "1c5f5110822a2570efcbb96c7d8bb3b0ef6227ca1195a9ceaf92ebb1c401d7d0"}, "downloads": -1, "filename": "drf_link_navigation_pagination-0.0.2-py3-none-any.whl", "has_sig": false, "md5_digest": "d83d95a8141ad28772c1510726fb5a57", "packagetype": "bdist_wheel", "python_version": "py3", "requires_python": null, "size": 7997, "upload_time": "2019-11-25T16:56:36", "upload_time_iso_8601": "2019-11-25T16:56:36.795575Z", "url": "https://files.pythonhosted.org/packages/c7/4a/eb00fddc6ab66046c6e342c74d302baac5610d424cacc1e0dfc8aa71c3a4/drf_link_navigation_pagination-0.0.2-py3-none-any.whl", "yanked": false}, {"comment_text": "", "digests": {"md5": "09a2937cd21350552efe6680712a9ee1", "sha256": "778359341de468c49d79691da4108c26feb3ef307732b5a2f1fbe38b980696ad"}, "downloads": -1, "filename": "drf-link-navigation-pagination-0.0.2.tar.gz", "has_sig": false, "md5_digest": "09a2937cd21350552efe6680712a9ee1", "packagetype": "sdist", "python_version": "source", "requires_python": null, "size": 5026, "upload_time": "2019-11-25T16:56:38", "upload_time_iso_8601": "2019-11-25T16:56:38.173319Z", "url": "https://files.pythonhosted.org/packages/38/b7/6c936b85d055f8a61671f8ac3d9bf2fc16e3d8e3d7ca54e6567ceb2cd75c/drf-link-navigation-pagination-0.0.2.tar.gz", "yanked": false}], "0.0.3": [{"comment_text": "", "digests": {"md5": "58a6b1589a6b87dc6a83aaef17d3bc23", "sha256": "020048511f559fd89b9727136a7b06c2318ef337ca65bb6d7049808b8ff98198"}, "downloads": -1, "filename": "drf_link_navigation_pagination-0.0.3-py3-none-any.whl", "has_sig": false, "md5_digest": "58a6b1589a6b87dc6a83aaef17d3bc23", "packagetype": "bdist_wheel", "python_version": "py3", "requires_python": null, "size": 8080, "upload_time": "2019-11-25T18:15:40", "upload_time_iso_8601": "2019-11-25T18:15:40.245002Z", "url": "https://files.pythonhosted.org/packages/59/18/a9a7adf0dde6e8ec0327f9b840814c973058bd2b5d4da42b1799034c77f5/drf_link_navigation_pagination-0.0.3-py3-none-any.whl", "yanked": false}, {"comment_text": "", "digests": {"md5": "ec13597151473ea0a832e22527bfdd5c", "sha256": "fee695b1129ab8977c155c2a61b83eda7662527ba50f80406eccf2aa564f207f"}, "downloads": -1, "filename": "drf-link-navigation-pagination-0.0.3.tar.gz", "has_sig": false, "md5_digest": "ec13597151473ea0a832e22527bfdd5c", "packagetype": "sdist", "python_version": "source", "requires_python": null, "size": 5098, "upload_time": "2019-11-25T18:15:41", "upload_time_iso_8601": "2019-11-25T18:15:41.753006Z", "url": "https://files.pythonhosted.org/packages/0d/52/64df193a788fb61454decc536550199abb3f0ef8fd8f9641714ec04e80f9/drf-link-navigation-pagination-0.0.3.tar.gz", "yanked": false}], "0.0.4": [{"comment_text": "", "digests": {"md5": "d4e6536562feea5545987fa837de57e2", "sha256": "1d9429ea7765279641c77ac374272a145d7d08e6da0773d6dd060baa36ac59b3"}, "downloads": -1, "filename": "drf_link_navigation_pagination-0.0.4-py3-none-any.whl", "has_sig": false, "md5_digest": "d4e6536562feea5545987fa837de57e2", "packagetype": "bdist_wheel", "python_version": "py3", "requires_python": null, "size": 8515, "upload_time": "2019-11-25T21:13:16", "upload_time_iso_8601": "2019-11-25T21:13:16.974794Z", "url": "https://files.pythonhosted.org/packages/bc/d4/11dc47342a8a1813b037b1cbe85639f82d07001fed316d3e792cc31f97c4/drf_link_navigation_pagination-0.0.4-py3-none-any.whl", "yanked": false}, {"comment_text": "", "digests": {"md5": "4af679d109078421101a97e212d1d2aa", "sha256": "f4c876cd9652a44f528fa58348b9e7ddbda58eb33bb07052c640ec1b72ad8325"}, "downloads": -1, "filename": "drf-link-navigation-pagination-0.0.4.tar.gz", "has_sig": false, "md5_digest": "4af679d109078421101a97e212d1d2aa", "packagetype": "sdist", "python_version": "source", "requires_python": null, "size": 5553, "upload_time": "2019-11-25T21:13:18", "upload_time_iso_8601": "2019-11-25T21:13:18.205892Z", "url": "https://files.pythonhosted.org/packages/d4/99/1a40ca3e0840da193aa4fd5fac70095d0a6a0f3ce61ced3d28ddda871c98/drf-link-navigation-pagination-0.0.4.tar.gz", "yanked": false}]}, "urls": [{"comment_text": "", "digests": {"md5": "d4e6536562feea5545987fa837de57e2", "sha256": "1d9429ea7765279641c77ac374272a145d7d08e6da0773d6dd060baa36ac59b3"}, "downloads": -1, "filename": "drf_link_navigation_pagination-0.0.4-py3-none-any.whl", "has_sig": false, "md5_digest": "d4e6536562feea5545987fa837de57e2", "packagetype": "bdist_wheel", "python_version": "py3", "requires_python": null, "size": 8515, "upload_time": "2019-11-25T21:13:16", "upload_time_iso_8601": "2019-11-25T21:13:16.974794Z", "url": "https://files.pythonhosted.org/packages/bc/d4/11dc47342a8a1813b037b1cbe85639f82d07001fed316d3e792cc31f97c4/drf_link_navigation_pagination-0.0.4-py3-none-any.whl", "yanked": false}, {"comment_text": "", "digests": {"md5": "4af679d109078421101a97e212d1d2aa", "sha256": "f4c876cd9652a44f528fa58348b9e7ddbda58eb33bb07052c640ec1b72ad8325"}, "downloads": -1, "filename": "drf-link-navigation-pagination-0.0.4.tar.gz", "has_sig": false, "md5_digest": "4af679d109078421101a97e212d1d2aa", "packagetype": "sdist", "python_version": "source", "requires_python": null, "size": 5553, "upload_time": "2019-11-25T21:13:18", "upload_time_iso_8601": "2019-11-25T21:13:18.205892Z", "url": "https://files.pythonhosted.org/packages/d4/99/1a40ca3e0840da193aa4fd5fac70095d0a6a0f3ce61ced3d28ddda871c98/drf-link-navigation-pagination-0.0.4.tar.gz", "yanked": false}], "timestamp": "Fri May  8 00:49:43 2020"}